Title;Description;Type;YYYY;MM;DD;hh;mm;Recurring-YY;Recurring-MM;Recurring-DD;ReminderBefore-YY;ReminderBefore-MM;ReminderBefore-hh;ReminderBefore-mm;ReminderOffset-YY;ReminderOffset-MM;ReminderOffset-hh;ReminderOffset-mm;LastNotificationDate
Carol Shaw;Hero Video Game Programmer;Anniversary;1955;;;;;5;;;;;;;;;;;
Jade Raymond;Video Game Producer Hero;Birthdate;1975;8;28;;;1;;;;;;;;;;;
John Romero;Hero Video Game Programmer;Birthdate;1967;10;28;;;1;;;;;;;;;;;
John Carmack;Hero Video Game Programmer;Birthdate;1970;8;20;;;1;;;;;;;;;;;
Nolan Bushnell;Arcade Hero;Birthdate;1943;2;5;;;1;;;;;;;;;;;
Jack Tramiel;Home Computer Hero;Birthdate;1928;12;13;;;1;;;;;;;;;;;
Joseph Weizenbaum;Hero Computer Philosopher;Birthdate;1923;1;8;;;1;;;;;;;;;;;
Lois Lew;Best of IBM;Birthdate;1920;;;;;5;;;;;;;;;;;
Roberta Williams;Sierra On-Line, Inc.;Birthdate;1953;2;16;;;1;;;;;;;;;;;
Ken Williams;Sierra On-Line, Inc.;Birthdate;1954;10;30;;;1;;;;;;;;;;;